Downloads public water system information — echoSDWGetSystems • echor
…
...
Further arguments passed as query parameters in request sent to EPA ECHO's API. For more options see: https://echo.epa.gov/tools/web-services/facility-search-drinking-water#!/Safe_Drinking_Water/get_sdw_rest_services_get_systems for a complete list of parameter options. Examples provided below.

    Value

    returns a dataframe

    Examples

# \donttest{
## These examples require an internet connection to run
echoSDWGetSystems(p_co = "Brazos", p_st = "tx")
#> Warning: One or more parsing issues, see `problems()` for details
#> # A tibble: 40 × 66
#>    PWSName  PWSId CitiesServed StateCode ZipCodesServed CountiesServed EPARegion
#>    <chr>    <chr> <lgl>        <chr>     <lgl>          <chr>          <chr>    
#>  1 ABBATE … TX02… NA           TX        NA             Brazos         06       
#>  2 AL LEON… TX02… NA           TX        NA             Brazos         06       
#>  3 B J'S C… TX02… NA           TX        NA             Brazos         06       
#>  4 BENCHLE… TX02… NA           TX        NA             Brazos         06       
#>  5 BOBBITT… TX02… NA           TX        NA             Brazos         06       
#>  6 BRUSHY … TX02… NA           TX        NA             Brazos         06       
#>  7 CAFE SU… TX02… NA           TX        NA             Brazos         06       
#>  8 CAROUSE… TX02… NA           TX        NA             Brazos         06       
#>  9 CITY OF… TX02… NA           TX        NA             Brazos         06       
#> 10 CITY OF… TX02… NA           TX        NA             Brazos         06       
#> # … with 30 more rows, and 59 more variables: IndianCountry <chr>,
#> #   PWSTypeCode <chr>, PWSTypeDesc <chr>, PrimarySourceCode <chr>,
#> #   PrimarySourceDesc <chr>, PopulationServedCount <dbl>,
#> #   PWSActivityCode <chr>, PWSActivityDesc <chr>, OwnerTypeCode <chr>,
#> #   OwnerDesc <chr>, QtrsWithVio <dbl>, QtrsWithSNC <dbl>,
#> #   SeriousViolator <chr>, HealthFlag <chr>, MrFlag <chr>, PnFlag <chr>,
#> #   OtherFlag <chr>, NewVioFlg <chr>, RulesVio3yr <dbl>, RulesVio <dbl>, …
…
