Introduction to echor • echor
…
echoGetEffluent() - Returns a dataframe with reported water effluent discharges from permitted facilities.

Sample workflows

Air

Suppose we want to find facilities permitted under the Clean Air Act requirements.

Step 1 - Identify the information we need returned from the query:

library(echor)
meta <- echoAirGetMeta()
meta
#> # A tibble: 131 x 6
#>    ColumnName   DataType DataLength ColumnID ObjectName   Description      
#>    <chr>        <chr>    <chr>      <chr>    <chr>        <chr>            
#>  1 AIR_NAME     VARCHAR2 200        1        AIRName      The name of the ~
#>  2 SOURCE_ID    VARCHAR2 30         2        SourceID     Unique Identifie~
#>  3 AIR_STREET   VARCHAR2 200        3        AIRStreet    The street addre~
#>  4 AIR_CITY     VARCHAR2 100        4        AIRCity      <NA>             
#>  5 AIR_STATE    CHAR     2          5        AIRState     The state where ~
#>  6 LOCAL_CONTR~ CHAR     3          6        LocalContro~ Code for regions~
#>  7 AIR_ZIP      VARCHAR2 10         7        AIRZip       The five-digit z~
#>  8 REGISTRY_ID  VARCHAR2 50         8        RegistryID   An internal 12-d~
#>  9 AIR_COUNTY   VARCHAR2 100        9        AIRCounty    The name of the ~
#> 10 AIR_EPA_REG~ CHAR     2          10       AIREPARegion The EPA region w~
#> # ... with 121 more rows
…
