Download EPA ECHO emissions inventory report data — echoGetCAAPR • echor
…
      ...
      Additional arguments

    Value

    dataframe

    Examples

# \donttest{
## This example requires an internet connection to run

echoGetCAAPR(p_id = '110000350174')
#> # A tibble: 930 x 15
#>    Name  SourceID Street City  State Zip   County Region Latitude Longitude
#>    <chr> <chr>    <chr>  <chr> <chr> <chr> <chr>  <chr>     <dbl>     <dbl>
#>  1 CP&L~ 1100003~ 801 S~ WILM~ NC    28401 NEW H~ 04         34.3     -78.0
#>  2 CP&L~ 1100003~ 801 S~ WILM~ NC    28401 NEW H~ 04         34.3     -78.0
#>  3 CP&L~ 1100003~ 801 S~ WILM~ NC    28401 NEW H~ 04         34.3     -78.0
#>  4 CP&L~ 1100003~ 801 S~ WILM~ NC    28401 NEW H~ 04         34.3     -78.0
#>  5 CP&L~ 1100003~ 801 S~ WILM~ NC    28401 NEW H~ 04         34.3     -78.0
#>  6 CP&L~ 1100003~ 801 S~ WILM~ NC    28401 NEW H~ 04         34.3     -78.0
#>  7 CP&L~ 1100003~ 801 S~ WILM~ NC    28401 NEW H~ 04         34.3     -78.0
#>  8 CP&L~ 1100003~ 801 S~ WILM~ NC    28401 NEW H~ 04         34.3     -78.0
#>  9 CP&L~ 1100003~ 801 S~ WILM~ NC    28401 NEW H~ 04         34.3     -78.0
#> 10 CP&L~ 1100003~ 801 S~ WILM~ NC    28401 NEW H~ 04         34.3     -78.0
#> # ... with 920 more rows, and 5 more variables: Pollutant <fct>,
#> #   UnitsOfMeasure <fct>, Program <fct>, Year <int>, Discharge <dbl>
…
