Introduction to echor • echor
…
echoGetEffluent() - Returns a dataframe with reported water effluent discharges from permitted facilities.

Sample workflows

Air

Suppose we want to find facilities permitted under the Clean Air Act requirements.

Step 1 - Identify the information we need returned from the query:

library(echor)
meta <- echoAirGetMeta()
meta
#> # A tibble: 144 × 6
#>    ColumnName                DataType DataLength ColumnID ObjectName Description
#>    <chr>                     <chr>    <chr>      <chr>    <chr>      <chr>      
#>  1 AIR_NAME                  VARCHAR2 200        1        AIRName    The name o…
#>  2 SOURCE_ID                 VARCHAR2 30         2        SourceID   Unique Ide…
#>  3 AIR_STREET                VARCHAR2 200        3        AIRStreet  The street…
#>  4 AIR_CITY                  VARCHAR2 100        4        AIRCity    The city w…
#>  5 AIR_STATE                 CHAR     2          5        AIRState   The state …
#>  6 LOCAL_CONTROL_REGION_CODE CHAR     3          6        LocalCont… Code for r…
#>  7 AIR_ZIP                   VARCHAR2 10         7        AIRZip     The five-d…
#>  8 REGISTRY_ID               VARCHAR2 50         8        RegistryID An interna…
#>  9 AIR_COUNTY                VARCHAR2 100        9        AIRCounty  The name o…
#> 10 AIR_EPA_REGION            CHAR     2          10       AIREPAReg… The EPA re…
#> # … with 134 more rows
…
